Non-Pipelined/simulation/modelsim/dump.vcd
$date
	Fri Jan 03 22:46:29 2025
$end
$version
	ModelSim Version 10.5b
$end
$timescale
	1ps
$end

$scope module testb $end
$var reg 1 ! clk $end
$var reg 1 " reset $end
$var wire 1 # element1 [31] $end
$var wire 1 $ element1 [30] $end
$var wire 1 % element1 [29] $end
$var wire 1 & element1 [28] $end
$var wire 1 ' element1 [27] $end
$var wire 1 ( element1 [26] $end
$var wire 1 ) element1 [25] $end
$var wire 1 * element1 [24] $end
$var wire 1 + element1 [23] $end
$var wire 1 , element1 [22] $end
$var wire 1 - element1 [21] $end
$var wire 1 . element1 [20] $end
$var wire 1 / element1 [19] $end
$var wire 1 0 element1 [18] $end
$var wire 1 1 element1 [17] $end
$var wire 1 2 element1 [16] $end
$var wire 1 3 element1 [15] $end
$var wire 1 4 element1 [14] $end
$var wire 1 5 element1 [13] $end
$var wire 1 6 element1 [12] $end
$var wire 1 7 element1 [11] $end
$var wire 1 8 element1 [10] $end
$var wire 1 9 element1 [9] $end
$var wire 1 : element1 [8] $end
$var wire 1 ; element1 [7] $end
$var wire 1 < element1 [6] $end
$var wire 1 = element1 [5] $end
$var wire 1 > element1 [4] $end
$var wire 1 ? element1 [3] $end
$var wire 1 @ element1 [2] $end
$var wire 1 A element1 [1] $end
$var wire 1 B element1 [0] $end
$var wire 1 C element2 [31] $end
$var wire 1 D element2 [30] $end
$var wire 1 E element2 [29] $end
$var wire 1 F element2 [28] $end
$var wire 1 G element2 [27] $end
$var wire 1 H element2 [26] $end
$var wire 1 I element2 [25] $end
$var wire 1 J element2 [24] $end
$var wire 1 K element2 [23] $end
$var wire 1 L element2 [22] $end
$var wire 1 M element2 [21] $end
$var wire 1 N element2 [20] $end
$var wire 1 O element2 [19] $end
$var wire 1 P element2 [18] $end
$var wire 1 Q element2 [17] $end
$var wire 1 R element2 [16] $end
$var wire 1 S element2 [15] $end
$var wire 1 T element2 [14] $end
$var wire 1 U element2 [13] $end
$var wire 1 V element2 [12] $end
$var wire 1 W element2 [11] $end
$var wire 1 X element2 [10] $end
$var wire 1 Y element2 [9] $end
$var wire 1 Z element2 [8] $end
$var wire 1 [ element2 [7] $end
$var wire 1 \ element2 [6] $end
$var wire 1 ] element2 [5] $end
$var wire 1 ^ element2 [4] $end
$var wire 1 _ element2 [3] $end
$var wire 1 ` element2 [2] $end
$var wire 1 a element2 [1] $end
$var wire 1 b element2 [0] $end
$var wire 1 c element3 [31] $end
$var wire 1 d element3 [30] $end
$var wire 1 e element3 [29] $end
$var wire 1 f element3 [28] $end
$var wire 1 g element3 [27] $end
$var wire 1 h element3 [26] $end
$var wire 1 i element3 [25] $end
$var wire 1 j element3 [24] $end
$var wire 1 k element3 [23] $end
$var wire 1 l element3 [22] $end
$var wire 1 m element3 [21] $end
$var wire 1 n element3 [20] $end
$var wire 1 o element3 [19] $end
$var wire 1 p element3 [18] $end
$var wire 1 q element3 [17] $end
$var wire 1 r element3 [16] $end
$var wire 1 s element3 [15] $end
$var wire 1 t element3 [14] $end
$var wire 1 u element3 [13] $end
$var wire 1 v element3 [12] $end
$var wire 1 w element3 [11] $end
$var wire 1 x element3 [10] $end
$var wire 1 y element3 [9] $end
$var wire 1 z element3 [8] $end
$var wire 1 { element3 [7] $end
$var wire 1 | element3 [6] $end
$var wire 1 } element3 [5] $end
$var wire 1 ~ element3 [4] $end
$var wire 1 !! element3 [3] $end
$var wire 1 "! element3 [2] $end
$var wire 1 #! element3 [1] $end
$var wire 1 $! element3 [0] $end
$var wire 1 %! element4 [31] $end
$var wire 1 &! element4 [30] $end
$var wire 1 '! element4 [29] $end
$var wire 1 (! element4 [28] $end
$var wire 1 )! element4 [27] $end
$var wire 1 *! element4 [26] $end
$var wire 1 +! element4 [25] $end
$var wire 1 ,! element4 [24] $end
$var wire 1 -! element4 [23] $end
$var wire 1 .! element4 [22] $end
$var wire 1 /! element4 [21] $end
$var wire 1 0! element4 [20] $end
$var wire 1 1! element4 [19] $end
$var wire 1 2! element4 [18] $end
$var wire 1 3! element4 [17] $end
$var wire 1 4! element4 [16] $end
$var wire 1 5! element4 [15] $end
$var wire 1 6! element4 [14] $end
$var wire 1 7! element4 [13] $end
$var wire 1 8! element4 [12] $end
$var wire 1 9! element4 [11] $end
$var wire 1 :! element4 [10] $end
$var wire 1 ;! element4 [9] $end
$var wire 1 <! element4 [8] $end
$var wire 1 =! element4 [7] $end
$var wire 1 >! element4 [6] $end
$var wire 1 ?! element4 [5] $end
$var wire 1 @! element4 [4] $end
$var wire 1 A! element4 [3] $end
$var wire 1 B! element4 [2] $end
$var wire 1 C! element4 [1] $end
$var wire 1 D! element4 [0] $end
$var wire 1 E! element5 [31] $end
$var wire 1 F! element5 [30] $end
$var wire 1 G! element5 [29] $end
$var wire 1 H! element5 [28] $end
$var wire 1 I! element5 [27] $end
$var wire 1 J! element5 [26] $end
$var wire 1 K! element5 [25] $end
$var wire 1 L! element5 [24] $end
$var wire 1 M! element5 [23] $end
$var wire 1 N! element5 [22] $end
$var wire 1 O! element5 [21] $end
$var wire 1 P! element5 [20] $end
$var wire 1 Q! element5 [19] $end
$var wire 1 R! element5 [18] $end
$var wire 1 S! element5 [17] $end
$var wire 1 T! element5 [16] $end
$var wire 1 U! element5 [15] $end
$var wire 1 V! element5 [14] $end
$var wire 1 W! element5 [13] $end
$var wire 1 X! element5 [12] $end
$var wire 1 Y! element5 [11] $end
$var wire 1 Z! element5 [10] $end
$var wire 1 [! element5 [9] $end
$var wire 1 \! element5 [8] $end
$var wire 1 ]! element5 [7] $end
$var wire 1 ^! element5 [6] $end
$var wire 1 _! element5 [5] $end
$var wire 1 `! element5 [4] $end
$var wire 1 a! element5 [3] $end
$var wire 1 b! element5 [2] $end
$var wire 1 c! element5 [1] $end
$var wire 1 d! element5 [0] $end
$var wire 1 e! element6 [31] $end
$var wire 1 f! element6 [30] $end
$var wire 1 g! element6 [29] $end
$var wire 1 h! element6 [28] $end
$var wire 1 i! element6 [27] $end
$var wire 1 j! element6 [26] $end
$var wire 1 k! element6 [25] $end
$var wire 1 l! element6 [24] $end
$var wire 1 m! element6 [23] $end
$var wire 1 n! element6 [22] $end
$var wire 1 o! element6 [21] $end
$var wire 1 p! element6 [20] $end
$var wire 1 q! element6 [19] $end
$var wire 1 r! element6 [18] $end
$var wire 1 s! element6 [17] $end
$var wire 1 t! element6 [16] $end
$var wire 1 u! element6 [15] $end
$var wire 1 v! element6 [14] $end
$var wire 1 w! element6 [13] $end
$var wire 1 x! element6 [12] $end
$var wire 1 y! element6 [11] $end
$var wire 1 z! element6 [10] $end
$var wire 1 {! element6 [9] $end
$var wire 1 |! element6 [8] $end
$var wire 1 }! element6 [7] $end
$var wire 1 ~! element6 [6] $end
$var wire 1 !" element6 [5] $end
$var wire 1 "" element6 [4] $end
$var wire 1 #" element6 [3] $end
$var wire 1 $" element6 [2] $end
$var wire 1 %" element6 [1] $end
$var wire 1 &" element6 [0] $end
$var wire 1 '" element7 [31] $end
$var wire 1 (" element7 [30] $end
$var wire 1 )" element7 [29] $end
$var wire 1 *" element7 [28] $end
$var wire 1 +" element7 [27] $end
$var wire 1 ," element7 [26] $end
$var wire 1 -" element7 [25] $end
$var wire 1 ." element7 [24] $end
$var wire 1 /" element7 [23] $end
$var wire 1 0" element7 [22] $end
$var wire 1 1" element7 [21] $end
$var wire 1 2" element7 [20] $end
$var wire 1 3" element7 [19] $end
$var wire 1 4" element7 [18] $end
$var wire 1 5" element7 [17] $end
$var wire 1 6" element7 [16] $end
$var wire 1 7" element7 [15] $end
$var wire 1 8" element7 [14] $end
$var wire 1 9" element7 [13] $end
$var wire 1 :" element7 [12] $end
$var wire 1 ;" element7 [11] $end
$var wire 1 <" element7 [10] $end
$var wire 1 =" element7 [9] $end
$var wire 1 >" element7 [8] $end
$var wire 1 ?" element7 [7] $end
$var wire 1 @" element7 [6] $end
$var wire 1 A" element7 [5] $end
$var wire 1 B" element7 [4] $end
$var wire 1 C" element7 [3] $end
$var wire 1 D" element7 [2] $end
$var wire 1 E" element7 [1] $end
$var wire 1 F" element7 [0] $end
$var wire 1 G" element8 [31] $end
$var wire 1 H" element8 [30] $end
$var wire 1 I" element8 [29] $end
$var wire 1 J" element8 [28] $end
$var wire 1 K" element8 [27] $end
$var wire 1 L" element8 [26] $end
$var wire 1 M" element8 [25] $end
$var wire 1 N" element8 [24] $end
$var wire 1 O" element8 [23] $end
$var wire 1 P" element8 [22] $end
$var wire 1 Q" element8 [21] $end
$var wire 1 R" element8 [20] $end
$var wire 1 S" element8 [19] $end
$var wire 1 T" element8 [18] $end
$var wire 1 U" element8 [17] $end
$var wire 1 V" element8 [16] $end
$var wire 1 W" element8 [15] $end
$var wire 1 X" element8 [14] $end
$var wire 1 Y" element8 [13] $end
$var wire 1 Z" element8 [12] $end
$var wire 1 [" element8 [11] $end
$var wire 1 \" element8 [10] $end
$var wire 1 ]" element8 [9] $end
$var wire 1 ^" element8 [8] $end
$var wire 1 _" element8 [7] $end
$var wire 1 `" element8 [6] $end
$var wire 1 a" element8 [5] $end
$var wire 1 b" element8 [4] $end
$var wire 1 c" element8 [3] $end
$var wire 1 d" element8 [2] $end
$var wire 1 e" element8 [1] $end
$var wire 1 f" element8 [0] $end
$upscope $end
$enddefinitions $end
#0
$dumpvars
0!
1"
1B
0A
0@
0?
0>
0=
0<
0;
0:
09
08
07
06
05
04
03
02
01
00
0/
0.
0-
0,
0+
0*
0)
0(
0'
0&
0%
0$
0#
0b
1a
0`
0_
0^
0]
0\
0[
0Z
0Y
0X
0W
0V
0U
0T
0S
0R
0Q
0P
0O
0N
0M
0L
0K
0J
0I
0H
0G
0F
0E
0D
0C
1$!
1#!
0"!
0!!
0~
0}
0|
0{
0z
0y
0x
0w
0v
0u
0t
0s
0r
0q
0p
0o
0n
0m
0l
0k
0j
0i
0h
0g
0f
0e
0d
0c
0D!
0C!
1B!
0A!
0@!
0?!
0>!
0=!
0<!
0;!
0:!
09!
08!
07!
06!
05!
04!
03!
02!
01!
00!
0/!
0.!
0-!
0,!
0+!
0*!
0)!
0(!
0'!
0&!
0%!
1d!
0c!
1b!
0a!
0`!
0_!
0^!
0]!
0\!
0[!
0Z!
0Y!
0X!
0W!
0V!
0U!
0T!
0S!
0R!
0Q!
0P!
0O!
0N!
0M!
0L!
0K!
0J!
0I!
0H!
0G!
0F!
0E!
0&"
1%"
1$"
0#"
0""
0!"
0~!
0}!
0|!
0{!
0z!
0y!
0x!
0w!
0v!
0u!
0t!
0s!
0r!
0q!
0p!
0o!
0n!
0m!
0l!
0k!
0j!
0i!
0h!
0g!
0f!
0e!
1F"
1E"
1D"
0C"
0B"
0A"
0@"
0?"
0>"
0="
0<"
0;"
0:"
09"
08"
07"
06"
05"
04"
03"
02"
01"
00"
0/"
0."
0-"
0,"
0+"
0*"
0)"
0("
0'"
0f"
0e"
0d"
1c"
0b"
0a"
0`"
0_"
0^"
0]"
0\"
0["
0Z"
0Y"
0X"
0W"
0V"
0U"
0T"
0S"
0R"
0Q"
0P"
0O"
0N"
0M"
0L"
0K"
0J"
0I"
0H"
0G"
$end
#5
1!
#7
0"
#10
0!
#15
1!
#20
0!
#25
1!
#30
0!
#35
1!
#40
0!
#45
1!
#50
0!
#55
1!
#60
0!
#65
1!
#70
0!
#75
1!
#80
0!
#85
1!
#90
0!
#95
1!
#100
0!
#105
1!
#110
0!
#115
1!
#120
0!
#125
1!
#130
0!
#135
1!
#140
0!
#145
1!
#150
0!
#155
1!
#160
0!
#165
1!
0B
1A
#170
0!
#175
1!
1b
0a
#180
0!
#185
1!
#190
0!
#195
1!
#200
0!
#205
1!
#210
0!
#215
1!
#220
0!
#225
1!
#230
0!
#235
1!
#240
0!
#245
1!
#250
0!
#255
1!
#260
0!
#265
1!
1B
#270
0!
#275
1!
0$!
#280
0!
#285
1!
#290
0!
#295
1!
#300
0!
#305
1!
#310
0!
#315
1!
#320
0!
#325
1!
#330
0!
#335
1!
#340
0!
#345
1!
#350
0!
#355
1!
#360
0!
#365
1!
0B
0A
1@
#370
0!
#375
1!
1D!
1C!
0B!
#380
0!
#385
1!
#390
0!
#395
1!
#400
0!
#405
1!
#410
0!
#415
1!
#420
0!
#425
1!
#430
0!
#435
1!
#440
0!
#445
1!
#450
0!
#455
1!
#460
0!
#465
1!
1B
#470
0!
#475
1!
0d!
#480
0!
#485
1!
#490
0!
#495
1!
#500
0!
#505
1!
#510
0!
#515
1!
#520
0!
#525
1!
#530
0!
#535
1!
#540
0!
#545
1!
#550
0!
#555
1!
#560
0!
#565
1!
0B
1A
#570
0!
#575
1!
1&"
0%"
#580
0!
#585
1!
#590
0!
#595
1!
#600
0!
#605
1!
#610
0!
#615
1!
#620
0!
#625
1!
#630
0!
#635
1!
#640
0!
#645
1!
#650
0!
#655
1!
#660
0!
#665
1!
1B
#670
0!
#675
1!
0F"
#680
0!
#685
1!
#690
0!
#695
1!
#700
0!
#705
1!
#710
0!
#715
1!
#720
0!
#725
1!
#730
0!
#735
1!
#740
0!
#745
1!
#750
0!
#755
1!
#760
0!
#765
1!
0B
0A
0@
1?
#770
0!
#775
1!
1f"
1e"
1d"
0c"
